<svg id="svg1" width="48" height="48" version="1.1" viewBox="0 0 12.7 12.7" xmlns="http://www.w3.org/2000/svg">
<!--
  SPDX-License-Identifier: FSFAP
  SPDX-FileCopyrightText: 2024 Carl Schwan <carl@carlschwan.eu>
 -->
    <defs id="defs1">
        <linearGradient id="a" x1="24" x2="24" y1="294" y2="257" gradientTransform="matrix(.26458336 0 0 .25852709 -1.5720304e-6 -64.355081)" gradientUnits="userSpaceOnUse">
            <stop id="stop1" stop-color="#166173" offset="0"/>
            <stop id="stop2" stop-color="#114c5a" offset="1"/>
        </linearGradient>
    </defs>
    <g id="layer1">
        <rect id="rect12" x="1.0583333" y="1.0583333" width="10.583332" height="10.583333" rx="1.5860059" ry="1.5875" fill="#34495e" stroke-width=".264707"/>
        <rect id="rect13" x="1.0583333" y="1.0583333" width="10.583332" height="10.31875" rx="1.5860059" ry="1.5875" fill="url(#a)" stroke-width=".264707"/>
        <g fill="#d9e8e3">
            <circle id="path1" cx="7.9374995" cy="7.9375024" r="2.3812499" stroke-width=".414255"/>
            <circle id="path1-3" cx="5.8208332" cy="5.8208361" r="1.8520833" fill-opacity=".872955" stroke-width=".322199"/>
            <path id="path2" d="m3.96875 2.3812525a1.5875 1.5875 0 0 0-1.5875 1.5875 1.5875 1.5875 0 0 0 1.5875 1.5875 1.5875 1.5875 0 0 0 0.023254-0.00207 1.8520833 1.8520833 0 0 1 1.5621785-1.5621785 1.5875 1.5875 0 0 0 0.00207-0.023254 1.5875 1.5875 0 0 0-1.5875-1.5875z" fill-opacity=".544297" stroke-width=".276169"/>
        </g>
    </g>
</svg>
